{
  "pools": [
    {
      "name": "tricrypto",
      "apy_base": 14.4,
      "apy_crv": 10.00,
      "apy_cvx": 9.90,
      "tvl": 222000455
    },
    {
      "name": "seth",
      "apy_base": 3.3,
      "apy_crv": 5.44,
      "apy_cvx": 6.77,
      "tvl": 333000455
    },
    {
      "name": "saave",
      "apy_base": 12.0,
      "apy_crv": 12.0,
      "apy_cvx": 10.55,
      "tvl": 444000455
    },
    {
      "name": "ren",
      "apy_base": 0.13,
      "apy_crv": 0.82,
      "apy_cvx": 0.90,
      "tvl": 555000455
    },
    {
      "name": "steth",
      "apy_base": 1.0,
      "apy_crv": 1.92,
      "apy_cvx": 1.53,
      "tvl": 666000455
    }
  ]
}
